%YAML 1.1
%TAG !u! tag:unity3d.com,2011:
--- !u!114 &11400000
MonoBehaviour:
  m_ObjectHideFlags: 0
  m_CorrespondingSourceObject: {fileID: 0}
  m_PrefabInstance: {fileID: 0}
  m_PrefabAsset: {fileID: 0}
  m_GameObject: {fileID: 0}
  m_Enabled: 1
  m_EditorHideFlags: 0
  m_Script: {fileID: 11500000, guid: d6847f784fcbc834d9079674959fcd90, type: 3}
  m_Name: IndeacatePeh
  m_EditorClassIdentifier: 
  _enomOne:
  - _numberEnom: 100
    _objEnom: {fileID: 748675444916870081, guid: f8ceb4a04259ff645a89273cec9a3ce5, type: 3}
