%YAML 1.1
%TAG !u! tag:unity3d.com,2011:
--- !u!114 &11400000
MonoBehaviour:
  m_ObjectHideFlags: 0
  m_CorrespondingSourceObject: {fileID: 0}
  m_PrefabInstance: {fileID: 0}
  m_PrefabAsset: {fileID: 0}
  m_GameObject: {fileID: 0}
  m_Enabled: 1
  m_EditorHideFlags: 0
  m_Script: {fileID: 11500000, guid: 01ec37447538b4c429fe48a2e25b8b12, type: 3}
  m_Name: ArsenalBuliteMachine
  m_EditorClassIdentifier: 
  _machineBulite:
  - _numberMach: 1000
    _objBuliteMach: {fileID: 566773304885078341, guid: 2f87c03aa6c56b14faf006947abad269, type: 3}
