%YAML 1.1
%TAG !u! tag:unity3d.com,2011:
--- !u!1 &1229794860679405461
GameObject:
  m_ObjectHideFlags: 0
  m_CorrespondingSourceObject: {fileID: 0}
  m_PrefabInstance: {fileID: 0}
  m_PrefabAsset: {fileID: 0}
  serializedVersion: 6
  m_Component:
  - component: {fileID: 1229794860679405451}
  - component: {fileID: 1229794860679405450}
  m_Layer: 0
  m_Name: LandPathForInfantry02
  m_TagString: Untagged
  m_Icon: {fileID: 0}
  m_NavMeshLayer: 0
  m_StaticEditorFlags: 0
  m_IsActive: 1
--- !u!4 &1229794860679405451
Transform:
  m_ObjectHideFlags: 0
  m_CorrespondingSourceObject: {fileID: 0}
  m_PrefabInstance: {fileID: 0}
  m_PrefabAsset: {fileID: 0}
  m_GameObject: {fileID: 1229794860679405461}
  m_LocalRotation: {x: 0, y: 0, z: 0, w: 1}
  m_LocalPosition: {x: 2.834, y: 0.953, z: -16.47}
  m_LocalScale: {x: 1, y: 1, z: 1}
  m_Children: []
  m_Father: {fileID: 0}
  m_RootOrder: 0
  m_LocalEulerAnglesHint: {x: 0, y: 0, z: 0}
--- !u!114 &1229794860679405450
MonoBehaviour:
  m_ObjectHideFlags: 0
  m_CorrespondingSourceObject: {fileID: 0}
  m_PrefabInstance: {fileID: 0}
  m_PrefabAsset: {fileID: 0}
  m_GameObject: {fileID: 1229794860679405461}
  m_Enabled: 1
  m_EditorHideFlags: 0
  m_Script: {fileID: 11500000, guid: 8e5ac92bc18f545cc84cd886ece82b4d, type: 3}
  m_Name: 
  m_EditorClassIdentifier: 
  editorData:
    _bezierPath:
      points:
      - {x: -0.2839241, y: -0.057729542, z: 1.3819685}
      - {x: -0.29452157, y: -0.03783226, z: 2.1797247}
      - {x: -0.018016756, y: -0.3239726, z: -9.428029}
      - {x: -0.31708574, y: -0.006006956, z: -9.320942}
      - {x: -0.6262984, y: 0.32274336, z: -9.210222}
      - {x: -10.90112, y: 0.042816184, z: -9.123169}
      - {x: -10.91571, y: -0.056955457, z: -9.524458}
      - {x: -10.946861, y: -0.26997626, z: -10.381243}
      - {x: -10.89768, y: 0.6629856, z: -27.131426}
      - {x: -10.920076, y: -0.04430312, z: -27.22717}
      - {x: -10.943269, y: -0.7767515, z: -27.326323}
      - {x: -0.9290829, y: -0.056271564, z: -27.303232}
      - {x: -0.9343344, y: -0.04430312, z: -27.683184}
      - {x: -0.99661994, y: 0.09764844, z: -32.189587}
      - {x: -0.75810397, y: -0.034671884, z: -40.25159}
      - {x: -0.7547946, y: -0.04430312, z: -40.649178}
      - {x: -0.74605656, y: -0.06973356, z: -41.698967}
      - {x: -9.707895, y: -0.12408203, z: -41.637543}
      - {x: -10.699326, y: -0.04430312, z: -41.495842}
      isClosed: 0
      space: 0
      controlMode: 0
      autoControlLength: 0.3
      boundsUpToDate: 0
      bounds:
        m_Center: {x: 0, y: 0, z: 0}
        m_Extent: {x: 0, y: 0, z: 0}
      perAnchorNormalsAngle:
      - 0
      - 0
      - 0
      - 0
      - 0
      - 0
      - 0
      globalNormalsAngle: 0
      flipNormals: 0
    vertexPathUpToDate: 0
    vertexPathMaxAngleError: 0.3
    vertexPathMinVertexSpacing: 0.01
    showTransformTool: 1
    showPathBounds: 0
    showPerSegmentBounds: 0
    displayAnchorPoints: 1
    displayControlPoints: 1
    bezierHandleScale: 1
    globalDisplaySettingsFoldout: 0
    keepConstantHandleSize: 0
    showNormalsInVertexMode: 0
    showBezierPathInVertexMode: 0
    showDisplayOptions: 0
    showPathOptions: 1
    showVertexPathDisplayOptions: 0
    showVertexPathOptions: 1
    showNormals: 0
    showNormalsHelpInfo: 0
    tabIndex: 0
  initialized: 1
