[api-updater (non-obsolete-error-filter)] 26.03.2022 23:43:58 : Starting D:/Program Files/2020.3.27f1/Editor/Data/Tools/ScriptUpdater/APIUpdater.NonObsoleteApiUpdaterDetector.exe
[api-updater (non-obsolete-error-filter)] 
----------------------------------
jit/startup time      : 1309,0037ms
moved types parse time: 272ms
candidates parse time : 37ms
C# parse time         : 847ms
candidates check time : 65ms
console write time    : 4ms

[api-updater (non-obsolete-error-filter)] 26.03.2022 23:45:55 : Starting D:/Program Files/2020.3.27f1/Editor/Data/Tools/ScriptUpdater/APIUpdater.NonObsoleteApiUpdaterDetector.exe
[api-updater (non-obsolete-error-filter)] 
----------------------------------
jit/startup time      : 131,3882ms
moved types parse time: 94ms
candidates parse time : 46ms
C# parse time         : 198ms
candidates check time : 48ms
console write time    : 0ms

[api-updater (non-obsolete-error-filter)] 27.03.2022 16:52:36 : Starting D:/Program Files/2020.3.27f1/Editor/Data/Tools/ScriptUpdater/APIUpdater.NonObsoleteApiUpdaterDetector.exe
[api-updater (non-obsolete-error-filter)] 
----------------------------------
jit/startup time      : 16866,41ms
moved types parse time: 822ms
candidates parse time : 585ms
C# parse time         : 3810ms
candidates check time : 515ms
console write time    : 26ms

[api-updater (non-obsolete-error-filter)] 27.03.2022 20:29:31 : Starting D:/Program Files/2020.3.27f1/Editor/Data/Tools/ScriptUpdater/APIUpdater.NonObsoleteApiUpdaterDetector.exe
[api-updater (non-obsolete-error-filter)] 
----------------------------------
jit/startup time      : 980,1669ms
moved types parse time: 202ms
candidates parse time : 84ms
C# parse time         : 690ms
candidates check time : 30ms
console write time    : 5ms

[api-updater (non-obsolete-error-filter)] 10.04.2022 14:25:37 : Starting D:/Program Files/2020.3.27f1/Editor/Data/Tools/ScriptUpdater/APIUpdater.NonObsoleteApiUpdaterDetector.exe
[api-updater (non-obsolete-error-filter)] 
----------------------------------
jit/startup time      : 4201,8069ms
moved types parse time: 76ms
candidates parse time : 1ms
C# parse time         : 2580ms
candidates check time : 81ms
console write time    : 5ms

[api-updater (non-obsolete-error-filter)] 10.04.2022 14:27:44 : Starting D:/Program Files/2020.3.27f1/Editor/Data/Tools/ScriptUpdater/APIUpdater.NonObsoleteApiUpdaterDetector.exe
[api-updater (non-obsolete-error-filter)] 
----------------------------------
jit/startup time      : 177,7668ms
moved types parse time: 98ms
candidates parse time : 58ms
C# parse time         : 182ms
candidates check time : 76ms
console write time    : 0ms

[api-updater (non-obsolete-error-filter)] 10.04.2022 14:33:07 : Starting D:/Program Files/2020.3.27f1/Editor/Data/Tools/ScriptUpdater/APIUpdater.NonObsoleteApiUpdaterDetector.exe
[api-updater (non-obsolete-error-filter)] 
----------------------------------
jit/startup time      : 1461,0614ms
moved types parse time: 64ms
candidates parse time : 1ms
C# parse time         : 282ms
candidates check time : 53ms
console write time    : 0ms

[api-updater (non-obsolete-error-filter)] 10.04.2022 16:17:59 : Starting D:/Program Files/2020.3.27f1/Editor/Data/Tools/ScriptUpdater/APIUpdater.NonObsoleteApiUpdaterDetector.exe
[api-updater (non-obsolete-error-filter)] 
----------------------------------
jit/startup time      : 774,9279ms
moved types parse time: 194ms
candidates parse time : 39ms
C# parse time         : 254ms
candidates check time : 69ms
console write time    : 0ms

[api-updater (non-obsolete-error-filter)] 12.04.2022 21:09:07 : Starting D:/Program Files/2020.3.27f1/Editor/Data/Tools/ScriptUpdater/APIUpdater.NonObsoleteApiUpdaterDetector.exe
[api-updater (non-obsolete-error-filter)] 
----------------------------------
jit/startup time      : 1973,827ms
moved types parse time: 89ms
candidates parse time : 1ms
C# parse time         : 1710ms
candidates check time : 79ms
console write time    : 44ms

[api-updater (non-obsolete-error-filter)] 12.04.2022 21:17:53 : Starting D:/Program Files/2020.3.27f1/Editor/Data/Tools/ScriptUpdater/APIUpdater.NonObsoleteApiUpdaterDetector.exe
[api-updater (non-obsolete-error-filter)] 
----------------------------------
jit/startup time      : 902,6543ms
moved types parse time: 73ms
candidates parse time : 27ms
C# parse time         : 177ms
candidates check time : 43ms
console write time    : 0ms

[api-updater (non-obsolete-error-filter)] 13.04.2022 23:11:24 : Starting D:/Program Files/2020.3.27f1/Editor/Data/Tools/ScriptUpdater/APIUpdater.NonObsoleteApiUpdaterDetector.exe
[api-updater (non-obsolete-error-filter)] 
----------------------------------
jit/startup time      : 1508,4378ms
moved types parse time: 88ms
candidates parse time : 2ms
C# parse time         : 834ms
candidates check time : 58ms
console write time    : 8ms

[api-updater (non-obsolete-error-filter)] 13.04.2022 23:11:33 : Starting D:/Program Files/2020.3.27f1/Editor/Data/Tools/ScriptUpdater/APIUpdater.NonObsoleteApiUpdaterDetector.exe
[api-updater (non-obsolete-error-filter)] 
----------------------------------
jit/startup time      : 230,3653ms
moved types parse time: 78ms
candidates parse time : 13ms
C# parse time         : 357ms
candidates check time : 38ms
console write time    : 0ms

[api-updater (non-obsolete-error-filter)] 14.04.2022 20:02:05 : Starting D:/Program Files/2020.3.27f1/Editor/Data/Tools/ScriptUpdater/APIUpdater.NonObsoleteApiUpdaterDetector.exe
[api-updater (non-obsolete-error-filter)] 
----------------------------------
jit/startup time      : 1089,0772ms
moved types parse time: 211ms
candidates parse time : 1ms
C# parse time         : 1002ms
candidates check time : 217ms
console write time    : 10ms

[api-updater (non-obsolete-error-filter)] 14.04.2022 21:04:42 : Starting D:/Program Files/2020.3.27f1/Editor/Data/Tools/ScriptUpdater/APIUpdater.NonObsoleteApiUpdaterDetector.exe
[api-updater (non-obsolete-error-filter)] 
----------------------------------
jit/startup time      : 2355,3165ms
moved types parse time: 49ms
candidates parse time : 1ms
C# parse time         : 178ms
candidates check time : 64ms
console write time    : 0ms

[api-updater (non-obsolete-error-filter)] 14.04.2022 21:41:19 : Starting D:/Program Files/2020.3.27f1/Editor/Data/Tools/ScriptUpdater/APIUpdater.NonObsoleteApiUpdaterDetector.exe
[api-updater (non-obsolete-error-filter)] 
----------------------------------
jit/startup time      : 138,3217ms
moved types parse time: 81ms
candidates parse time : 14ms
C# parse time         : 172ms
candidates check time : 58ms
console write time    : 0ms

[api-updater (non-obsolete-error-filter)] 14.04.2022 21:42:33 : Starting D:/Program Files/2020.3.27f1/Editor/Data/Tools/ScriptUpdater/APIUpdater.NonObsoleteApiUpdaterDetector.exe
[api-updater (non-obsolete-error-filter)] 
----------------------------------
jit/startup time      : 172,4897ms
moved types parse time: 94ms
candidates parse time : 22ms
C# parse time         : 223ms
candidates check time : 70ms
console write time    : 0ms

[api-updater (non-obsolete-error-filter)] 14.04.2022 21:44:31 : Starting D:/Program Files/2020.3.27f1/Editor/Data/Tools/ScriptUpdater/APIUpdater.NonObsoleteApiUpdaterDetector.exe
[api-updater (non-obsolete-error-filter)] 
----------------------------------
jit/startup time      : 119,6778ms
moved types parse time: 136ms
candidates parse time : 20ms
C# parse time         : 176ms
candidates check time : 79ms
console write time    : 0ms

[api-updater (non-obsolete-error-filter)] 14.04.2022 21:45:06 : Starting D:/Program Files/2020.3.27f1/Editor/Data/Tools/ScriptUpdater/APIUpdater.NonObsoleteApiUpdaterDetector.exe
[api-updater (non-obsolete-error-filter)] 
----------------------------------
jit/startup time      : 75,8963ms
moved types parse time: 72ms
candidates parse time : 33ms
C# parse time         : 160ms
candidates check time : 64ms
console write time    : 0ms

[api-updater (non-obsolete-error-filter)] 14.04.2022 22:33:14 : Starting D:/Program Files/2020.3.27f1/Editor/Data/Tools/ScriptUpdater/APIUpdater.NonObsoleteApiUpdaterDetector.exe
[api-updater (non-obsolete-error-filter)] Exception caught while loading types from D:\Александр\Documents\ProchetTowerDefensTwoSemester\Src\ProjectTowerDefenesNumberSeven\Library\ScriptAssemblies\Unity.CollabProxy.Editor.dll (some types may not be loaded)
	Exception of type 'System.Reflection.ReflectionTypeLoadException' was thrown.
	  at (wrapper managed-to-native) System.Reflection.Assembly.GetTypes(System.Reflection.Assembly,bool)
  at System.Reflection.Assembly.GetTypes () [0x00000] in <695d1cc93cca45069c528c15c9fdd749>:0 
  at APIUpdater.NonObsoleteApiUpdaterDetector.ExtraInfoParser+<LoadTypesWithMovedFromAttributeAsync>d__3.MoveNext () [0x000c8] in <68bff7873e0e4aa69a14dfc30bebbe3e>:0 
	Could not load file or assembly 'UnityEditor.CoreModule, Version=0.0.0.0, Culture=neutral, PublicKeyToken=null' or one of its dependencies.

[api-updater (non-obsolete-error-filter)] Exception caught while loading types from D:\Александр\Documents\ProchetTowerDefensTwoSemester\Src\ProjectTowerDefenesNumberSeven\Library\ScriptAssemblies\Unity.TextMeshPro.Editor.dll (some types may not be loaded)
	Exception of type 'System.Reflection.ReflectionTypeLoadException' was thrown.
	  at (wrapper managed-to-native) System.Reflection.Assembly.GetTypes(System.Reflection.Assembly,bool)
  at System.Reflection.Assembly.GetTypes () [0x00000] in <695d1cc93cca45069c528c15c9fdd749>:0 
  at APIUpdater.NonObsoleteApiUpdaterDetector.ExtraInfoParser+<LoadTypesWithMovedFromAttributeAsync>d__3.MoveNext () [0x000c8] in <68bff7873e0e4aa69a14dfc30bebbe3e>:0 
	Could not load file or assembly 'UnityEditor.CoreModule, Version=0.0.0.0, Culture=neutral, PublicKeyToken=null' or one of its dependencies.

[api-updater (non-obsolete-error-filter)] 
----------------------------------
jit/startup time      : 968,6791ms
moved types parse time: 178ms
candidates parse time : 21ms
C# parse time         : 358ms
candidates check time : 70ms
console write time    : 0ms

[api-updater (non-obsolete-error-filter)] 14.04.2022 22:41:48 : Starting D:/Program Files/2020.3.27f1/Editor/Data/Tools/ScriptUpdater/APIUpdater.NonObsoleteApiUpdaterDetector.exe
[api-updater (non-obsolete-error-filter)] 
----------------------------------
jit/startup time      : 288,3011ms
moved types parse time: 69ms
candidates parse time : 50ms
C# parse time         : 142ms
candidates check time : 62ms
console write time    : 0ms

[api-updater (non-obsolete-error-filter)] 14.04.2022 22:50:17 : Starting D:/Program Files/2020.3.27f1/Editor/Data/Tools/ScriptUpdater/APIUpdater.NonObsoleteApiUpdaterDetector.exe
[api-updater (non-obsolete-error-filter)] 
----------------------------------
jit/startup time      : 773,9907ms
moved types parse time: 120ms
candidates parse time : 71ms
C# parse time         : 143ms
candidates check time : 58ms
console write time    : 0ms

[api-updater (non-obsolete-error-filter)] 15.04.2022 9:53:22 : Starting D:/Program Files/2020.3.27f1/Editor/Data/Tools/ScriptUpdater/APIUpdater.NonObsoleteApiUpdaterDetector.exe
[api-updater (non-obsolete-error-filter)] 
----------------------------------
jit/startup time      : 984,8664ms
moved types parse time: 170ms
candidates parse time : 57ms
C# parse time         : 564ms
candidates check time : 28ms
console write time    : 0ms

[api-updater (non-obsolete-error-filter)] 15.04.2022 16:05:39 : Starting D:/Program Files/2020.3.27f1/Editor/Data/Tools/ScriptUpdater/APIUpdater.NonObsoleteApiUpdaterDetector.exe
[api-updater (non-obsolete-error-filter)] 
----------------------------------
jit/startup time      : 1479,3298ms
moved types parse time: 88ms
candidates parse time : 23ms
C# parse time         : 276ms
candidates check time : 95ms
console write time    : 0ms

[api-updater (non-obsolete-error-filter)] 15.04.2022 23:22:13 : Starting D:/Program Files/2020.3.27f1/Editor/Data/Tools/ScriptUpdater/APIUpdater.NonObsoleteApiUpdaterDetector.exe
[api-updater (non-obsolete-error-filter)] 
----------------------------------
jit/startup time      : 1139,9381ms
moved types parse time: 90ms
candidates parse time : 48ms
C# parse time         : 283ms
candidates check time : 64ms
console write time    : 0ms

[api-updater (non-obsolete-error-filter)] 15.04.2022 23:22:44 : Starting D:/Program Files/2020.3.27f1/Editor/Data/Tools/ScriptUpdater/APIUpdater.NonObsoleteApiUpdaterDetector.exe
[api-updater (non-obsolete-error-filter)] 
----------------------------------
jit/startup time      : 131,5938ms
moved types parse time: 91ms
candidates parse time : 23ms
C# parse time         : 164ms
candidates check time : 43ms
console write time    : 0ms

[api-updater (non-obsolete-error-filter)] 16.04.2022 22:51:07 : Starting D:/Program Files/2020.3.27f1/Editor/Data/Tools/ScriptUpdater/APIUpdater.NonObsoleteApiUpdaterDetector.exe
[api-updater (non-obsolete-error-filter)] 
----------------------------------
jit/startup time      : 2032,9151ms
moved types parse time: 86ms
candidates parse time : 1ms
C# parse time         : 1968ms
candidates check time : 74ms
console write time    : 5ms

[api-updater (non-obsolete-error-filter)] 16.04.2022 22:52:39 : Starting D:/Program Files/2020.3.27f1/Editor/Data/Tools/ScriptUpdater/APIUpdater.NonObsoleteApiUpdaterDetector.exe
[api-updater (non-obsolete-error-filter)] 
----------------------------------
jit/startup time      : 966,9679ms
moved types parse time: 105ms
candidates parse time : 30ms
C# parse time         : 203ms
candidates check time : 103ms
console write time    : 0ms

[api-updater (non-obsolete-error-filter)] 16.04.2022 22:53:45 : Starting D:/Program Files/2020.3.27f1/Editor/Data/Tools/ScriptUpdater/APIUpdater.NonObsoleteApiUpdaterDetector.exe
[api-updater (non-obsolete-error-filter)] 
----------------------------------
jit/startup time      : 165,5567ms
moved types parse time: 114ms
candidates parse time : 28ms
C# parse time         : 205ms
candidates check time : 129ms
console write time    : 0ms

[api-updater (non-obsolete-error-filter)] 16.04.2022 22:55:14 : Starting D:/Program Files/2020.3.27f1/Editor/Data/Tools/ScriptUpdater/APIUpdater.NonObsoleteApiUpdaterDetector.exe
[api-updater (non-obsolete-error-filter)] 
----------------------------------
jit/startup time      : 364,6178ms
moved types parse time: 103ms
candidates parse time : 66ms
C# parse time         : 204ms
candidates check time : 179ms
console write time    : 0ms

[api-updater (non-obsolete-error-filter)] 16.04.2022 22:56:07 : Starting D:/Program Files/2020.3.27f1/Editor/Data/Tools/ScriptUpdater/APIUpdater.NonObsoleteApiUpdaterDetector.exe
[api-updater (non-obsolete-error-filter)] 
----------------------------------
jit/startup time      : 184,8076ms
moved types parse time: 122ms
candidates parse time : 147ms
C# parse time         : 204ms
candidates check time : 216ms
console write time    : 0ms

[api-updater (non-obsolete-error-filter)] 16.04.2022 22:56:14 : Starting D:/Program Files/2020.3.27f1/Editor/Data/Tools/ScriptUpdater/APIUpdater.NonObsoleteApiUpdaterDetector.exe
[api-updater (non-obsolete-error-filter)] 
----------------------------------
jit/startup time      : 197,9811ms
moved types parse time: 94ms
candidates parse time : 43ms
C# parse time         : 220ms
candidates check time : 200ms
console write time    : 0ms

[api-updater (non-obsolete-error-filter)] 16.04.2022 22:56:22 : Starting D:/Program Files/2020.3.27f1/Editor/Data/Tools/ScriptUpdater/APIUpdater.NonObsoleteApiUpdaterDetector.exe
[api-updater (non-obsolete-error-filter)] 
----------------------------------
jit/startup time      : 269,9525ms
moved types parse time: 181ms
candidates parse time : 45ms
C# parse time         : 269ms
candidates check time : 156ms
console write time    : 0ms

[api-updater (non-obsolete-error-filter)] 16.04.2022 22:59:05 : Starting D:/Program Files/2020.3.27f1/Editor/Data/Tools/ScriptUpdater/APIUpdater.NonObsoleteApiUpdaterDetector.exe
[api-updater (non-obsolete-error-filter)] 
----------------------------------
jit/startup time      : 307,4748ms
moved types parse time: 63ms
candidates parse time : 48ms
C# parse time         : 225ms
candidates check time : 72ms
console write time    : 1ms

[api-updater (non-obsolete-error-filter)] 16.04.2022 23:00:39 : Starting D:/Program Files/2020.3.27f1/Editor/Data/Tools/ScriptUpdater/APIUpdater.NonObsoleteApiUpdaterDetector.exe
[api-updater (non-obsolete-error-filter)] 
----------------------------------
jit/startup time      : 108,7091ms
moved types parse time: 137ms
candidates parse time : 92ms
C# parse time         : 313ms
candidates check time : 73ms
console write time    : 0ms

[api-updater (non-obsolete-error-filter)] 17.04.2022 11:53:33 : Starting D:/Program Files/2020.3.27f1/Editor/Data/Tools/ScriptUpdater/APIUpdater.NonObsoleteApiUpdaterDetector.exe
[api-updater (non-obsolete-error-filter)] 
----------------------------------
jit/startup time      : 2497,355ms
moved types parse time: 418ms
candidates parse time : 1ms
C# parse time         : 1086ms
candidates check time : 59ms
console write time    : 3ms

[api-updater (non-obsolete-error-filter)] 17.04.2022 11:55:14 : Starting D:/Program Files/2020.3.27f1/Editor/Data/Tools/ScriptUpdater/APIUpdater.NonObsoleteApiUpdaterDetector.exe
[api-updater (non-obsolete-error-filter)] 
----------------------------------
jit/startup time      : 103,5284ms
moved types parse time: 129ms
candidates parse time : 86ms
C# parse time         : 165ms
candidates check time : 53ms
console write time    : 0ms

[api-updater (non-obsolete-error-filter)] 17.04.2022 11:55:17 : Starting D:/Program Files/2020.3.27f1/Editor/Data/Tools/ScriptUpdater/APIUpdater.NonObsoleteApiUpdaterDetector.exe
[api-updater (non-obsolete-error-filter)] 
----------------------------------
jit/startup time      : 193,6416ms
moved types parse time: 85ms
candidates parse time : 57ms
C# parse time         : 195ms
candidates check time : 45ms
console write time    : 0ms

[api-updater (non-obsolete-error-filter)] 20.04.2022 18:32:23 : Starting D:/Program Files/2020.3.27f1/Editor/Data/Tools/ScriptUpdater/APIUpdater.NonObsoleteApiUpdaterDetector.exe
[api-updater (non-obsolete-error-filter)] 
----------------------------------
jit/startup time      : 1853,7553ms
moved types parse time: 93ms
candidates parse time : 1ms
C# parse time         : 822ms
candidates check time : 47ms
console write time    : 20ms

[api-updater (non-obsolete-error-filter)] 02.05.2022 13:29:06 : Starting D:/Program Files/2020.3.27f1/Editor/Data/Tools/ScriptUpdater/APIUpdater.NonObsoleteApiUpdaterDetector.exe
[api-updater (non-obsolete-error-filter)] 
----------------------------------
jit/startup time      : 36630,7342ms
moved types parse time: 731ms
candidates parse time : 1ms
C# parse time         : 3139ms
candidates check time : 136ms
console write time    : 21ms

[api-updater (non-obsolete-error-filter)] 02.05.2022 13:30:31 : Starting D:/Program Files/2020.3.27f1/Editor/Data/Tools/ScriptUpdater/APIUpdater.NonObsoleteApiUpdaterDetector.exe
[api-updater (non-obsolete-error-filter)] 
----------------------------------
jit/startup time      : 270,8746ms
moved types parse time: 127ms
candidates parse time : 44ms
C# parse time         : 177ms
candidates check time : 50ms
console write time    : 0ms

[api-updater (non-obsolete-error-filter)] 02.05.2022 13:34:27 : Starting D:/Program Files/2020.3.27f1/Editor/Data/Tools/ScriptUpdater/APIUpdater.NonObsoleteApiUpdaterDetector.exe
[api-updater (non-obsolete-error-filter)] 
----------------------------------
jit/startup time      : 905,7532ms
moved types parse time: 137ms
candidates parse time : 70ms
C# parse time         : 213ms
candidates check time : 46ms
console write time    : 0ms

[api-updater (non-obsolete-error-filter)] 02.05.2022 13:34:47 : Starting D:/Program Files/2020.3.27f1/Editor/Data/Tools/ScriptUpdater/APIUpdater.NonObsoleteApiUpdaterDetector.exe
[api-updater (non-obsolete-error-filter)] 
----------------------------------
jit/startup time      : 164,5611ms
moved types parse time: 112ms
candidates parse time : 80ms
C# parse time         : 252ms
candidates check time : 59ms
console write time    : 0ms

[api-updater (non-obsolete-error-filter)] 02.05.2022 13:35:00 : Starting D:/Program Files/2020.3.27f1/Editor/Data/Tools/ScriptUpdater/APIUpdater.NonObsoleteApiUpdaterDetector.exe
[api-updater (non-obsolete-error-filter)] 
----------------------------------
jit/startup time      : 166,5529ms
moved types parse time: 135ms
candidates parse time : 93ms
C# parse time         : 284ms
candidates check time : 72ms
console write time    : 0ms

[api-updater (non-obsolete-error-filter)] 02.05.2022 13:41:10 : Starting D:/Program Files/2020.3.27f1/Editor/Data/Tools/ScriptUpdater/APIUpdater.NonObsoleteApiUpdaterDetector.exe
[api-updater (non-obsolete-error-filter)] Exception caught while loading types from D:\Александр\Documents\ProchetTowerDefensTwoSemester\Src\ProjectTowerDefenesNumberSeven\Library\ScriptAssemblies\Unity.CollabProxy.Editor.dll (some types may not be loaded)
	Exception of type 'System.Reflection.ReflectionTypeLoadException' was thrown.
	  at (wrapper managed-to-native) System.Reflection.Assembly.GetTypes(System.Reflection.Assembly,bool)
  at System.Reflection.Assembly.GetTypes () [0x00000] in <695d1cc93cca45069c528c15c9fdd749>:0 
  at APIUpdater.NonObsoleteApiUpdaterDetector.ExtraInfoParser+<LoadTypesWithMovedFromAttributeAsync>d__3.MoveNext () [0x000c8] in <68bff7873e0e4aa69a14dfc30bebbe3e>:0 
	Could not load file or assembly 'UnityEditor.CoreModule, Version=0.0.0.0, Culture=neutral, PublicKeyToken=null' or one of its dependencies.

[api-updater (non-obsolete-error-filter)] Exception caught while loading types from D:\Александр\Documents\ProchetTowerDefensTwoSemester\Src\ProjectTowerDefenesNumberSeven\Library\ScriptAssemblies\Unity.TextMeshPro.Editor.dll (some types may not be loaded)
	Exception of type 'System.Reflection.ReflectionTypeLoadException' was thrown.
	  at (wrapper managed-to-native) System.Reflection.Assembly.GetTypes(System.Reflection.Assembly,bool)
  at System.Reflection.Assembly.GetTypes () [0x00000] in <695d1cc93cca45069c528c15c9fdd749>:0 
  at APIUpdater.NonObsoleteApiUpdaterDetector.ExtraInfoParser+<LoadTypesWithMovedFromAttributeAsync>d__3.MoveNext () [0x000c8] in <68bff7873e0e4aa69a14dfc30bebbe3e>:0 
	Could not load file or assembly 'UnityEditor.CoreModule, Version=0.0.0.0, Culture=neutral, PublicKeyToken=null' or one of its dependencies.

[api-updater (non-obsolete-error-filter)] 
----------------------------------
jit/startup time      : 97,1114ms
moved types parse time: 88ms
candidates parse time : 35ms
C# parse time         : 245ms
candidates check time : 47ms
console write time    : 0ms

[api-updater (non-obsolete-error-filter)] 03.05.2022 15:00:05 : Starting D:/Program Files/2020.3.27f1/Editor/Data/Tools/ScriptUpdater/APIUpdater.NonObsoleteApiUpdaterDetector.exe
[api-updater (non-obsolete-error-filter)] 
----------------------------------
jit/startup time      : 1709,9618ms
moved types parse time: 145ms
candidates parse time : 76ms
C# parse time         : 1459ms
candidates check time : 81ms
console write time    : 5ms

[api-updater (non-obsolete-error-filter)] 03.05.2022 15:00:19 : Starting D:/Program Files/2020.3.27f1/Editor/Data/Tools/ScriptUpdater/APIUpdater.NonObsoleteApiUpdaterDetector.exe
[api-updater (non-obsolete-error-filter)] 
----------------------------------
jit/startup time      : 108,0623ms
moved types parse time: 107ms
candidates parse time : 45ms
C# parse time         : 217ms
candidates check time : 66ms
console write time    : 0ms

[api-updater (non-obsolete-error-filter)] 03.05.2022 15:23:20 : Starting D:/Program Files/2020.3.27f1/Editor/Data/Tools/ScriptUpdater/APIUpdater.NonObsoleteApiUpdaterDetector.exe
[api-updater (non-obsolete-error-filter)] 
----------------------------------
jit/startup time      : 827,6593ms
moved types parse time: 92ms
candidates parse time : 24ms
C# parse time         : 179ms
candidates check time : 43ms
console write time    : 0ms

[api-updater (non-obsolete-error-filter)] 03.05.2022 15:24:35 : Starting D:/Program Files/2020.3.27f1/Editor/Data/Tools/ScriptUpdater/APIUpdater.NonObsoleteApiUpdaterDetector.exe
[api-updater (non-obsolete-error-filter)] 
----------------------------------
jit/startup time      : 225,3948ms
moved types parse time: 64ms
candidates parse time : 22ms
C# parse time         : 199ms
candidates check time : 41ms
console write time    : 0ms

[api-updater (non-obsolete-error-filter)] 03.05.2022 15:25:40 : Starting D:/Program Files/2020.3.27f1/Editor/Data/Tools/ScriptUpdater/APIUpdater.NonObsoleteApiUpdaterDetector.exe
[api-updater (non-obsolete-error-filter)] 
----------------------------------
jit/startup time      : 101,3647ms
moved types parse time: 99ms
candidates parse time : 21ms
C# parse time         : 224ms
candidates check time : 53ms
console write time    : 0ms

[api-updater (non-obsolete-error-filter)] 05.05.2022 16:00:20 : Starting D:/Program Files/2020.3.27f1/Editor/Data/Tools/ScriptUpdater/APIUpdater.NonObsoleteApiUpdaterDetector.exe
[api-updater (non-obsolete-error-filter)] 
----------------------------------
jit/startup time      : 5920,8011ms
moved types parse time: 106ms
candidates parse time : 1ms
C# parse time         : 2181ms
candidates check time : 57ms
console write time    : 3ms

[api-updater (non-obsolete-error-filter)] 05.05.2022 16:17:18 : Starting D:/Program Files/2020.3.27f1/Editor/Data/Tools/ScriptUpdater/APIUpdater.NonObsoleteApiUpdaterDetector.exe
[api-updater (non-obsolete-error-filter)] 
----------------------------------
jit/startup time      : 3447,3988ms
moved types parse time: 53ms
candidates parse time : 1ms
C# parse time         : 451ms
candidates check time : 71ms
console write time    : 0ms

[api-updater (non-obsolete-error-filter)] 05.05.2022 16:27:31 : Starting D:/Program Files/2020.3.27f1/Editor/Data/Tools/ScriptUpdater/APIUpdater.NonObsoleteApiUpdaterDetector.exe
[api-updater (non-obsolete-error-filter)] 
----------------------------------
jit/startup time      : 849,3445ms
moved types parse time: 145ms
candidates parse time : 251ms
C# parse time         : 244ms
candidates check time : 69ms
console write time    : 0ms

[api-updater (non-obsolete-error-filter)] 05.05.2022 18:13:30 : Starting D:/Program Files/2020.3.27f1/Editor/Data/Tools/ScriptUpdater/APIUpdater.NonObsoleteApiUpdaterDetector.exe
[api-updater (non-obsolete-error-filter)] 
----------------------------------
jit/startup time      : 762,8817ms
moved types parse time: 73ms
candidates parse time : 66ms
C# parse time         : 229ms
candidates check time : 61ms
console write time    : 0ms

[api-updater (non-obsolete-error-filter)] 05.05.2022 18:34:40 : Starting D:/Program Files/2020.3.27f1/Editor/Data/Tools/ScriptUpdater/APIUpdater.NonObsoleteApiUpdaterDetector.exe
[api-updater (non-obsolete-error-filter)] 
----------------------------------
jit/startup time      : 679,8951ms
moved types parse time: 88ms
candidates parse time : 18ms
C# parse time         : 392ms
candidates check time : 64ms
console write time    : 0ms

[api-updater (non-obsolete-error-filter)] 09.05.2022 8:44:20 : Starting D:/Program Files/2020.3.27f1/Editor/Data/Tools/ScriptUpdater/APIUpdater.NonObsoleteApiUpdaterDetector.exe
[api-updater (non-obsolete-error-filter)] 
----------------------------------
jit/startup time      : 5592,24ms
moved types parse time: 112ms
candidates parse time : 1ms
C# parse time         : 1928ms
candidates check time : 2148ms
console write time    : 43ms

[api-updater (non-obsolete-error-filter)] 09.05.2022 8:45:54 : Starting D:/Program Files/2020.3.27f1/Editor/Data/Tools/ScriptUpdater/APIUpdater.NonObsoleteApiUpdaterDetector.exe
[api-updater (non-obsolete-error-filter)] 
----------------------------------
jit/startup time      : 157,5783ms
moved types parse time: 103ms
candidates parse time : 17ms
C# parse time         : 174ms
candidates check time : 1435ms
console write time    : 0ms

[api-updater (non-obsolete-error-filter)] 09.05.2022 18:56:21 : Starting D:/Program Files/2020.3.27f1/Editor/Data/Tools/ScriptUpdater/APIUpdater.NonObsoleteApiUpdaterDetector.exe
[api-updater (non-obsolete-error-filter)] 
----------------------------------
jit/startup time      : 1177,3366ms
moved types parse time: 330ms
candidates parse time : 32ms
C# parse time         : 541ms
candidates check time : 69ms
console write time    : 46ms

[api-updater (non-obsolete-error-filter)] 13.05.2022 8:41:24 : Starting D:/Program Files/2020.3.27f1/Editor/Data/Tools/ScriptUpdater/APIUpdater.NonObsoleteApiUpdaterDetector.exe
[api-updater (non-obsolete-error-filter)] 
----------------------------------
jit/startup time      : 3107,1436ms
moved types parse time: 159ms
candidates parse time : 2ms
C# parse time         : 1437ms
candidates check time : 67ms
console write time    : 5ms

[api-updater (non-obsolete-error-filter)] 13.05.2022 18:38:50 : Starting D:/Program Files/2020.3.27f1/Editor/Data/Tools/ScriptUpdater/APIUpdater.NonObsoleteApiUpdaterDetector.exe
[api-updater (non-obsolete-error-filter)] 
----------------------------------
jit/startup time      : 5780,2475ms
moved types parse time: 180ms
candidates parse time : 1ms
C# parse time         : 3431ms
candidates check time : 133ms
console write time    : 40ms

[api-updater (non-obsolete-error-filter)] 15.05.2022 21:16:28 : Starting D:/Program Files/2020.3.27f1/Editor/Data/Tools/ScriptUpdater/APIUpdater.NonObsoleteApiUpdaterDetector.exe
[api-updater (non-obsolete-error-filter)] 
----------------------------------
jit/startup time      : 3389,224ms
moved types parse time: 85ms
candidates parse time : 1ms
C# parse time         : 1355ms
candidates check time : 45ms
console write time    : 5ms

[api-updater (non-obsolete-error-filter)] 15.05.2022 21:56:53 : Starting D:/Program Files/2020.3.27f1/Editor/Data/Tools/ScriptUpdater/APIUpdater.NonObsoleteApiUpdaterDetector.exe
[api-updater (non-obsolete-error-filter)] 
----------------------------------
jit/startup time      : 2338,8205ms
moved types parse time: 68ms
candidates parse time : 1ms
C# parse time         : 392ms
candidates check time : 80ms
console write time    : 0ms

[api-updater (non-obsolete-error-filter)] 16.05.2022 11:08:45 : Starting D:/Program Files/2020.3.27f1/Editor/Data/Tools/ScriptUpdater/APIUpdater.NonObsoleteApiUpdaterDetector.exe
[api-updater (non-obsolete-error-filter)] 
----------------------------------
jit/startup time      : 4920,3296ms
moved types parse time: 90ms
candidates parse time : 1ms
C# parse time         : 1709ms
candidates check time : 73ms
console write time    : 6ms

